project/verilog/pixelSensor_tb.vcd
$date
	Tue Nov 16 18:03:27 2021
$end
$version
	Icarus Verilog
$end
$timescale
	1ps
$end
$scope module pixelSensor_tb $end
$var wire 1 ! anaReset $end
$var wire 1 " pixData1 $end
$var wire 1 # pixData2 $end
$var wire 1 $ pixData3 $end
$var wire 1 % pixData4 $end
$var wire 1 & anaRamp $end
$var wire 1 ' anaBias1 $end
$var reg 1 ( clk $end
$var reg 1 ) convert $end
$var reg 8 * data [7:0] $end
$var reg 1 + erase $end
$var reg 1 , expose $end
$var reg 3 - next_state [2:0] $end
$var reg 8 . pixelDataOut1 [7:0] $end
$var reg 8 / pixelDataOut2 [7:0] $end
$var reg 8 0 pixelDataOut3 [7:0] $end
$var reg 8 1 pixelDataOut4 [7:0] $end
$var reg 1 2 read1 $end
$var reg 1 3 read2 $end
$var reg 1 4 read3 $end
$var reg 1 5 read4 $end
$var reg 1 6 reset $end
$var reg 3 7 state [2:0] $end
$var integer 32 8 counter [31:0] $end
$scope module ps1 $end
$var wire 8 9 DATA1 [7:0] $end
$var wire 8 : DATA2 [7:0] $end
$var wire 8 ; DATA3 [7:0] $end
$var wire 8 < DATA4 [7:0] $end
$var wire 1 + ERASE $end
$var wire 1 , EXPOSE $end
$var wire 1 & RAMP $end
$var wire 1 2 READ1 $end
$var wire 1 3 READ2 $end
$var wire 1 4 READ3 $end
$var wire 1 5 READ4 $end
$var wire 1 ! RESET $end
$var wire 1 ' VBN1 $end
$scope module pixSens1 $end
$var wire 8 = DATA [7:0] $end
$var wire 1 + ERASE $end
$var wire 1 , EXPOSE $end
$var wire 1 & RAMP $end
$var wire 1 2 READ $end
$var wire 1 ! RESET $end
$var wire 1 ' VBN1 $end
$var reg 1 > cmp $end
$var reg 8 ? p_data [7:0] $end
$var real 1 @ adc $end
$var real 1 A lsb $end
$var real 1 B tmp $end
$var real 1 C v_erase $end
$upscope $end
$scope module pixSens2 $end
$var wire 8 D DATA [7:0] $end
$var wire 1 + ERASE $end
$var wire 1 , EXPOSE $end
$var wire 1 & RAMP $end
$var wire 1 3 READ $end
$var wire 1 ! RESET $end
$var wire 1 ' VBN1 $end
$var reg 1 E cmp $end
$var reg 8 F p_data [7:0] $end
$var real 1 G adc $end
$var real 1 H lsb $end
$var real 1 I tmp $end
$var real 1 J v_erase $end
$upscope $end
$scope module pixSens3 $end
$var wire 8 K DATA [7:0] $end
$var wire 1 + ERASE $end
$var wire 1 , EXPOSE $end
$var wire 1 & RAMP $end
$var wire 1 4 READ $end
$var wire 1 ! RESET $end
$var wire 1 ' VBN1 $end
$var reg 1 L cmp $end
$var reg 8 M p_data [7:0] $end
$var real 1 N adc $end
$var real 1 O lsb $end
$var real 1 P tmp $end
$var real 1 Q v_erase $end
$upscope $end
$scope module pixSens4 $end
$var wire 8 R DATA [7:0] $end
$var wire 1 + ERASE $end
$var wire 1 , EXPOSE $end
$var wire 1 & RAMP $end
$var wire 1 5 READ $end
$var wire 1 ! RESET $end
$var wire 1 ' VBN1 $end
$var reg 1 S cmp $end
$var reg 8 T p_data [7:0] $end
$var real 1 U adc $end
$var real 1 V lsb $end
$var real 1 W tmp $end
$var real 1 X v_erase $end
$upscope $end
$upscope $end
$upscope $end
$enddefinitions $end
#500000
$dumpvars
r1.2 X
r0 W
r0.004705882352941176 V
r0 U
bx T
xS
bx R
r1.2 Q
r0 P
r0.004705882352941176 O
r0 N
bx M
xL
bx K
r1.2 J
r0 I
r0.004705882352941176 H
r0 G
bx F
xE
bx D
r1.2 C
r0 B
r0.004705882352941176 A
r0 @
bx ?
x>
bx =
bx <
bx ;
bx :
bx 9
b0 8
b0 7
06
x5
x4
x3
x2
b0 1
b0 0
b0 /
b0 .
b0 -
x,
x+
b0 *
0)
1(
x'
0&
x%
x$
x#
x"
1!
$end
#1000000
0%
0$
0#
0"
bz0 <
bz0 R
bz0 ;
bz0 K
bz0 :
bz0 D
bz0 9
bz0 =
0S
bz0 T
r1.2 W
0L
bz0 M
r1.2 P
0E
bz0 F
r1.2 I
0>
bz0 ?
r1.2 B
0,
05
04
03
02
1+
0'
0(
#1500000
b1 8
1(
#2000000
0(
#2500000
b10 8
1(
#3000000
0(
#3500000
b11 8
1(
#4000000
0(
#4500000
b100 8
1(
#5000000
0(
#5500000
b101 8
1(
#6000000
0(
#6500000
b111 7
b1 -
b110 8
1(
#7000000
b0 ?
b0 F
b0 M
b0 T
0+
0(
#7500000
b1 7
b0 8
1(
#8000000
1,
0(
#8500000
r1.197647058823529 W
r1.197647058823529 P
r1.197647058823529 I
r1.197647058823529 B
b1 8
1'
1(
#9000000
0'
0(
#9500000
r1.195294117647059 B
r1.195294117647059 I
r1.195294117647059 P
r1.195294117647059 W
b10 8
1'
1(
#10000000
0'
0(
#10500000
r1.192941176470588 W
r1.192941176470588 P
r1.192941176470588 I
r1.192941176470588 B
b11 8
1'
1(
#11000000
0'
0(
#11500000
r1.190588235294117 B
r1.190588235294117 I
r1.190588235294117 P
r1.190588235294117 W
b100 8
1'
1(
#12000000
0'
0(
#12500000
r1.188235294117647 W
r1.188235294117647 P
r1.188235294117647 I
r1.188235294117647 B
b101 8
1'
1(
#13000000
0'
0(
#13500000
r1.185882352941176 B
r1.185882352941176 I
r1.185882352941176 P
r1.185882352941176 W
b110 8
1'
1(
#14000000
0'
0(
#14500000
r1.183529411764705 W
r1.183529411764705 P
r1.183529411764705 I
r1.183529411764705 B
b111 8
1'
1(
#15000000
0'
0(
#15500000
r1.181176470588235 B
r1.181176470588235 I
r1.181176470588235 P
r1.181176470588235 W
b1000 8
1'
1(
#16000000
0'
0(
#16500000
r1.178823529411764 W
r1.178823529411764 P
r1.178823529411764 I
r1.178823529411764 B
b1001 8
1'
1(
#17000000
0'
0(
#17500000
r1.176470588235293 B
r1.176470588235293 I
r1.176470588235293 P
r1.176470588235293 W
b1010 8
1'
1(
#18000000
0'
0(
#18500000
r1.174117647058823 W
r1.174117647058823 P
r1.174117647058823 I
r1.174117647058823 B
b1011 8
1'
1(
#19000000
0'
0(
#19500000
r1.171764705882352 B
r1.171764705882352 I
r1.171764705882352 P
r1.171764705882352 W
b1100 8
1'
1(
#20000000
0'
0(
#20500000
r1.169411764705881 W
r1.169411764705881 P
r1.169411764705881 I
r1.169411764705881 B
b1101 8
1'
1(
#21000000
0'
0(
#21500000
r1.167058823529411 B
r1.167058823529411 I
r1.167058823529411 P
r1.167058823529411 W
b1110 8
1'
1(
#22000000
0'
0(
#22500000
r1.16470588235294 W
r1.16470588235294 P
r1.16470588235294 I
r1.16470588235294 B
b1111 8
1'
1(
#23000000
0'
0(
#23500000
r1.162352941176469 B
r1.162352941176469 I
r1.162352941176469 P
r1.162352941176469 W
b10000 8
1'
1(
#24000000
0'
0(
#24500000
r1.159999999999999 W
r1.159999999999999 P
r1.159999999999999 I
r1.159999999999999 B
b10001 8
1'
1(
#25000000
0'
0(
#25500000
r1.157647058823528 B
r1.157647058823528 I
r1.157647058823528 P
r1.157647058823528 W
b10010 8
1'
1(
#26000000
0'
0(
#26500000
r1.155294117647057 W
r1.155294117647057 P
r1.155294117647057 I
r1.155294117647057 B
b10011 8
1'
1(
#27000000
0'
0(
#27500000
r1.152941176470587 B
r1.152941176470587 I
r1.152941176470587 P
r1.152941176470587 W
b10100 8
1'
1(
#28000000
0'
0(
#28500000
r1.150588235294116 W
r1.150588235294116 P
r1.150588235294116 I
r1.150588235294116 B
b10101 8
1'
1(
#29000000
0'
0(
#29500000
r1.148235294117645 B
r1.148235294117645 I
r1.148235294117645 P
r1.148235294117645 W
b10110 8
1'
1(
#30000000
0'
0(
#30500000
r1.145882352941175 W
r1.145882352941175 P
r1.145882352941175 I
r1.145882352941175 B
b10111 8
1'
1(
#31000000
0'
0(
#31500000
r1.143529411764704 B
r1.143529411764704 I
r1.143529411764704 P
r1.143529411764704 W
b11000 8
1'
1(
#32000000
0'
0(
#32500000
r1.141176470588233 W
r1.141176470588233 P
r1.141176470588233 I
r1.141176470588233 B
b11001 8
1'
1(
#33000000
0'
0(
#33500000
r1.138823529411763 B
r1.138823529411763 I
r1.138823529411763 P
r1.138823529411763 W
b11010 8
1'
1(
#34000000
0'
0(
#34500000
r1.136470588235292 W
r1.136470588235292 P
r1.136470588235292 I
r1.136470588235292 B
b11011 8
1'
1(
#35000000
0'
0(
#35500000
r1.134117647058821 B
r1.134117647058821 I
r1.134117647058821 P
r1.134117647058821 W
b11100 8
1'
1(
#36000000
0'
0(
#36500000
r1.131764705882351 W
r1.131764705882351 P
r1.131764705882351 I
r1.131764705882351 B
b11101 8
1'
1(
#37000000
0'
0(
#37500000
r1.12941176470588 B
r1.12941176470588 I
r1.12941176470588 P
r1.12941176470588 W
b11110 8
1'
1(
#38000000
0'
0(
#38500000
r1.127058823529409 W
r1.127058823529409 P
r1.127058823529409 I
r1.127058823529409 B
b11111 8
1'
1(
#39000000
0'
0(
#39500000
r1.124705882352939 B
r1.124705882352939 I
r1.124705882352939 P
r1.124705882352939 W
b100000 8
1'
1(
#40000000
0'
0(
#40500000
r1.122352941176468 W
r1.122352941176468 P
r1.122352941176468 I
r1.122352941176468 B
b100001 8
1'
1(
#41000000
0'
0(
#41500000
r1.119999999999997 B
r1.119999999999997 I
r1.119999999999997 P
r1.119999999999997 W
b100010 8
1'
1(
#42000000
0'
0(
#42500000
r1.117647058823527 W
r1.117647058823527 P
r1.117647058823527 I
r1.117647058823527 B
b100011 8
1'
1(
#43000000
0'
0(
#43500000
r1.115294117647056 B
r1.115294117647056 I
r1.115294117647056 P
r1.115294117647056 W
b100100 8
1'
1(
#44000000
0'
0(
#44500000
r1.112941176470585 W
r1.112941176470585 P
r1.112941176470585 I
r1.112941176470585 B
b100101 8
1'
1(
#45000000
0'
0(
#45500000
r1.110588235294115 B
r1.110588235294115 I
r1.110588235294115 P
r1.110588235294115 W
b100110 8
1'
1(
#46000000
0'
0(
#46500000
r1.108235294117644 W
r1.108235294117644 P
r1.108235294117644 I
r1.108235294117644 B
b100111 8
1'
1(
#47000000
0'
0(
#47500000
r1.105882352941173 B
r1.105882352941173 I
r1.105882352941173 P
r1.105882352941173 W
b101000 8
1'
1(
#48000000
0'
0(
#48500000
r1.103529411764703 W
r1.103529411764703 P
r1.103529411764703 I
r1.103529411764703 B
b101001 8
1'
1(
#49000000
0'
0(
#49500000
r1.101176470588232 B
r1.101176470588232 I
r1.101176470588232 P
r1.101176470588232 W
b101010 8
1'
1(
#50000000
0'
0(
#50500000
r1.098823529411761 W
r1.098823529411761 P
r1.098823529411761 I
r1.098823529411761 B
b101011 8
1'
1(
#51000000
0'
0(
#51500000
r1.096470588235291 B
r1.096470588235291 I
r1.096470588235291 P
r1.096470588235291 W
b101100 8
1'
1(
#52000000
0'
0(
#52500000
r1.09411764705882 W
r1.09411764705882 P
r1.09411764705882 I
r1.09411764705882 B
b101101 8
1'
1(
#53000000
0'
0(
#53500000
r1.091764705882349 B
r1.091764705882349 I
r1.091764705882349 P
r1.091764705882349 W
b101110 8
1'
1(
#54000000
0'
0(
#54500000
r1.089411764705879 W
r1.089411764705879 P
r1.089411764705879 I
r1.089411764705879 B
b101111 8
1'
1(
#55000000
0'
0(
#55500000
r1.087058823529408 B
r1.087058823529408 I
r1.087058823529408 P
r1.087058823529408 W
b110000 8
1'
1(
#56000000
0'
0(
#56500000
r1.084705882352937 W
r1.084705882352937 P
r1.084705882352937 I
r1.084705882352937 B
b110001 8
1'
1(
#57000000
0'
0(
#57500000
r1.082352941176467 B
r1.082352941176467 I
r1.082352941176467 P
r1.082352941176467 W
b110010 8
1'
1(
#58000000
0'
0(
#58500000
r1.079999999999996 W
r1.079999999999996 P
r1.079999999999996 I
r1.079999999999996 B
b110011 8
1'
1(
#59000000
0'
0(
#59500000
r1.077647058823525 B
r1.077647058823525 I
r1.077647058823525 P
r1.077647058823525 W
b110100 8
1'
1(
#60000000
0'
0(
#60500000
r1.075294117647055 W
r1.075294117647055 P
r1.075294117647055 I
r1.075294117647055 B
b110101 8
1'
1(
#61000000
0'
0(
#61500000
r1.072941176470584 B
r1.072941176470584 I
r1.072941176470584 P
r1.072941176470584 W
b110110 8
1'
1(
#62000000
0'
0(
#62500000
r1.070588235294113 W
r1.070588235294113 P
r1.070588235294113 I
r1.070588235294113 B
b110111 8
1'
1(
#63000000
0'
0(
#63500000
r1.068235294117643 B
r1.068235294117643 I
r1.068235294117643 P
r1.068235294117643 W
b111000 8
1'
1(
#64000000
0'
0(
#64500000
r1.065882352941172 W
r1.065882352941172 P
r1.065882352941172 I
r1.065882352941172 B
b111001 8
1'
1(
#65000000
0'
0(
#65500000
r1.063529411764701 B
r1.063529411764701 I
r1.063529411764701 P
r1.063529411764701 W
b111010 8
1'
1(
#66000000
0'
0(
#66500000
r1.061176470588231 W
r1.061176470588231 P
r1.061176470588231 I
r1.061176470588231 B
b111011 8
1'
1(
#67000000
0'
0(
#67500000
r1.05882352941176 B
r1.05882352941176 I
r1.05882352941176 P
r1.05882352941176 W
b111100 8
1'
1(
#68000000
0'
0(
#68500000
r1.056470588235289 W
r1.056470588235289 P
r1.056470588235289 I
r1.056470588235289 B
b111101 8
1'
1(
#69000000
0'
0(
#69500000
r1.054117647058818 B
r1.054117647058818 I
r1.054117647058818 P
r1.054117647058818 W
b111110 8
1'
1(
#70000000
0'
0(
#70500000
r1.051764705882348 W
r1.051764705882348 P
r1.051764705882348 I
r1.051764705882348 B
b111111 8
1'
1(
#71000000
0'
0(
#71500000
r1.049411764705877 B
r1.049411764705877 I
r1.049411764705877 P
r1.049411764705877 W
b1000000 8
1'
1(
#72000000
0'
0(
#72500000
r1.047058823529406 W
r1.047058823529406 P
r1.047058823529406 I
r1.047058823529406 B
b1000001 8
1'
1(
#73000000
0'
0(
#73500000
r1.044705882352936 B
r1.044705882352936 I
r1.044705882352936 P
r1.044705882352936 W
b1000010 8
1'
1(
#74000000
0'
0(
#74500000
r1.042352941176465 W
r1.042352941176465 P
r1.042352941176465 I
r1.042352941176465 B
b1000011 8
1'
1(
#75000000
0'
0(
#75500000
r1.039999999999994 B
r1.039999999999994 I
r1.039999999999994 P
r1.039999999999994 W
b1000100 8
1'
1(
#76000000
0'
0(
#76500000
r1.037647058823524 W
r1.037647058823524 P
r1.037647058823524 I
r1.037647058823524 B
b1000101 8
1'
1(
#77000000
0'
0(
#77500000
r1.035294117647053 B
r1.035294117647053 I
r1.035294117647053 P
r1.035294117647053 W
b1000110 8
1'
1(
#78000000
0'
0(
#78500000
r1.032941176470582 W
r1.032941176470582 P
r1.032941176470582 I
r1.032941176470582 B
b1000111 8
1'
1(
#79000000
0'
0(
#79500000
r1.030588235294112 B
r1.030588235294112 I
r1.030588235294112 P
r1.030588235294112 W
b1001000 8
1'
1(
#80000000
0'
0(
#80500000
r1.028235294117641 W
r1.028235294117641 P
r1.028235294117641 I
r1.028235294117641 B
b1001001 8
1'
1(
#81000000
0'
0(
#81500000
r1.02588235294117 B
r1.02588235294117 I
r1.02588235294117 P
r1.02588235294117 W
b1001010 8
1'
1(
#82000000
0'
0(
#82500000
r1.0235294117647 W
r1.0235294117647 P
r1.0235294117647 I
r1.0235294117647 B
b1001011 8
1'
1(
#83000000
0'
0(
#83500000
r1.021176470588229 B
r1.021176470588229 I
r1.021176470588229 P
r1.021176470588229 W
b1001100 8
1'
1(
#84000000
0'
0(
#84500000
r1.018823529411758 W
r1.018823529411758 P
r1.018823529411758 I
r1.018823529411758 B
b1001101 8
1'
1(
#85000000
0'
0(
#85500000
r1.016470588235288 B
r1.016470588235288 I
r1.016470588235288 P
r1.016470588235288 W
b1001110 8
1'
1(
#86000000
0'
0(
#86500000
r1.014117647058817 W
r1.014117647058817 P
r1.014117647058817 I
r1.014117647058817 B
b1001111 8
1'
1(
#87000000
0'
0(
#87500000
r1.011764705882346 B
r1.011764705882346 I
r1.011764705882346 P
r1.011764705882346 W
b1010000 8
1'
1(
#88000000
0'
0(
#88500000
r1.009411764705876 W
r1.009411764705876 P
r1.009411764705876 I
r1.009411764705876 B
b1010001 8
1'
1(
#89000000
0'
0(
#89500000
r1.007058823529405 B
r1.007058823529405 I
r1.007058823529405 P
r1.007058823529405 W
b1010010 8
1'
1(
#90000000
0'
0(
#90500000
r1.004705882352934 W
r1.004705882352934 P
r1.004705882352934 I
r1.004705882352934 B
b1010011 8
1'
1(
#91000000
0'
0(
#91500000
r1.002352941176464 B
r1.002352941176464 I
r1.002352941176464 P
r1.002352941176464 W
b1010100 8
1'
1(
#92000000
0'
0(
#92500000
r0.9999999999999932 W
r0.9999999999999932 P
r0.9999999999999932 I
r0.9999999999999932 B
b1010101 8
1'
1(
#93000000
0'
0(
#93500000
r0.9976470588235227 B
r0.9976470588235227 I
r0.9976470588235227 P
r0.9976470588235227 W
b1010110 8
1'
1(
#94000000
0'
0(
#94500000
r0.9952941176470521 W
r0.9952941176470521 P
r0.9952941176470521 I
r0.9952941176470521 B
b1010111 8
1'
1(
#95000000
0'
0(
#95500000
r0.9929411764705816 B
r0.9929411764705816 I
r0.9929411764705816 P
r0.9929411764705816 W
b1011000 8
1'
1(
#96000000
0'
0(
#96500000
r0.990588235294111 W
r0.990588235294111 P
r0.990588235294111 I
r0.990588235294111 B
b1011001 8
1'
1(
#97000000
0'
0(
#97500000
r0.9882352941176404 B
r0.9882352941176404 I
r0.9882352941176404 P
r0.9882352941176404 W
b1011010 8
1'
1(
#98000000
0'
0(
#98500000
r0.9858823529411699 W
r0.9858823529411699 P
r0.9858823529411699 I
r0.9858823529411699 B
b1011011 8
1'
1(
#99000000
0'
0(
#99500000
r0.9835294117646993 B
r0.9835294117646993 I
r0.9835294117646993 P
r0.9835294117646993 W
b1011100 8
1'
1(
#100000000
0'
0(
#100500000
r0.9811764705882288 W
r0.9811764705882288 P
r0.9811764705882288 I
r0.9811764705882288 B
b1011101 8
1'
1(
#101000000
0'
0(
#101500000
r0.9788235294117582 B
r0.9788235294117582 I
r0.9788235294117582 P
r0.9788235294117582 W
b1011110 8
1'
1(
#102000000
0'
0(
#102500000
r0.9764705882352877 W
r0.9764705882352877 P
r0.9764705882352877 I
r0.9764705882352877 B
b1011111 8
1'
1(
#103000000
0'
0(
#103500000
r0.9741176470588171 B
r0.9741176470588171 I
r0.9741176470588171 P
r0.9741176470588171 W
b1100000 8
1'
1(
#104000000
0'
0(
#104500000
r0.9717647058823465 W
r0.9717647058823465 P
r0.9717647058823465 I
r0.9717647058823465 B
b1100001 8
1'
1(
#105000000
0'
0(
#105500000
r0.969411764705876 B
r0.969411764705876 I
r0.969411764705876 P
r0.969411764705876 W
b1100010 8
1'
1(
#106000000
0'
0(
#106500000
r0.9670588235294054 W
r0.9670588235294054 P
r0.9670588235294054 I
r0.9670588235294054 B
b1100011 8
1'
1(
#107000000
0'
0(
#107500000
r0.9647058823529349 B
r0.9647058823529349 I
r0.9647058823529349 P
r0.9647058823529349 W
b1100100 8
1'
1(
#108000000
0'
0(
#108500000
r0.9623529411764643 W
r0.9623529411764643 P
r0.9623529411764643 I
r0.9623529411764643 B
b1100101 8
1'
1(
#109000000
0'
0(
#109500000
r0.9599999999999937 B
r0.9599999999999937 I
r0.9599999999999937 P
r0.9599999999999937 W
b1100110 8
1'
1(
#110000000
0'
0(
#110500000
r0.9576470588235232 W
r0.9576470588235232 P
r0.9576470588235232 I
r0.9576470588235232 B
b1100111 8
1'
1(
#111000000
0'
0(
#111500000
r0.9552941176470526 B
r0.9552941176470526 I
r0.9552941176470526 P
r0.9552941176470526 W
b1101000 8
1'
1(
#112000000
0'
0(
#112500000
r0.9529411764705821 W
r0.9529411764705821 P
r0.9529411764705821 I
r0.9529411764705821 B
b1101001 8
1'
1(
#113000000
0'
0(
#113500000
r0.9505882352941115 B
r0.9505882352941115 I
r0.9505882352941115 P
r0.9505882352941115 W
b1101010 8
1'
1(
#114000000
0'
0(
#114500000
r0.948235294117641 W
r0.948235294117641 P
r0.948235294117641 I
r0.948235294117641 B
b1101011 8
1'
1(
#115000000
0'
0(
#115500000
r0.9458823529411704 B
r0.9458823529411704 I
r0.9458823529411704 P
r0.9458823529411704 W
b1101100 8
1'
1(
#116000000
0'
0(
#116500000
r0.9435294117646998 W
r0.9435294117646998 P
r0.9435294117646998 I
r0.9435294117646998 B
b1101101 8
1'
1(
#117000000
0'
0(
#117500000
r0.9411764705882293 B
r0.9411764705882293 I
r0.9411764705882293 P
r0.9411764705882293 W
b1101110 8
1'
1(
#118000000
0'
0(
#118500000
r0.9388235294117587 W
r0.9388235294117587 P
r0.9388235294117587 I
r0.9388235294117587 B
b1101111 8
1'
1(
#119000000
0'
0(
#119500000
r0.9364705882352882 B
r0.9364705882352882 I
r0.9364705882352882 P
r0.9364705882352882 W
b1110000 8
1'
1(
#120000000
0'
0(
#120500000
r0.9341176470588176 W
r0.9341176470588176 P
r0.9341176470588176 I
r0.9341176470588176 B
b1110001 8
1'
1(
#121000000
0'
0(
#121500000
r0.9317647058823471 B
r0.9317647058823471 I
r0.9317647058823471 P
r0.9317647058823471 W
b1110010 8
1'
1(
#122000000
0'
0(
#122500000
r0.9294117647058765 W
r0.9294117647058765 P
r0.9294117647058765 I
r0.9294117647058765 B
b1110011 8
1'
1(
#123000000
0'
0(
#123500000
r0.9270588235294059 B
r0.9270588235294059 I
r0.9270588235294059 P
r0.9270588235294059 W
b1110100 8
1'
1(
#124000000
0'
0(
#124500000
r0.9247058823529354 W
r0.9247058823529354 P
r0.9247058823529354 I
r0.9247058823529354 B
b1110101 8
1'
1(
#125000000
0'
0(
#125500000
r0.9223529411764648 B
r0.9223529411764648 I
r0.9223529411764648 P
r0.9223529411764648 W
b1110110 8
1'
1(
#126000000
0'
0(
#126500000
r0.9199999999999943 W
r0.9199999999999943 P
r0.9199999999999943 I
r0.9199999999999943 B
b1110111 8
1'
1(
#127000000
0'
0(
#127500000
r0.9176470588235237 B
r0.9176470588235237 I
r0.9176470588235237 P
r0.9176470588235237 W
b1111000 8
1'
1(
#128000000
0'
0(
#128500000
r0.9152941176470532 W
r0.9152941176470532 P
r0.9152941176470532 I
r0.9152941176470532 B
b1111001 8
1'
1(
#129000000
0'
0(
#129500000
r0.9129411764705826 B
r0.9129411764705826 I
r0.9129411764705826 P
r0.9129411764705826 W
b1111010 8
1'
1(
#130000000
0'
0(
#130500000
r0.910588235294112 W
r0.910588235294112 P
r0.910588235294112 I
r0.910588235294112 B
b1111011 8
1'
1(
#131000000
0'
0(
#131500000
r0.9082352941176415 B
r0.9082352941176415 I
r0.9082352941176415 P
r0.9082352941176415 W
b1111100 8
1'
1(
#132000000
0'
0(
#132500000
r0.9058823529411709 W
r0.9058823529411709 P
r0.9058823529411709 I
r0.9058823529411709 B
b1111101 8
1'
1(
#133000000
0'
0(
#133500000
r0.9035294117647004 B
r0.9035294117647004 I
r0.9035294117647004 P
r0.9035294117647004 W
b1111110 8
1'
1(
#134000000
0'
0(
#134500000
r0.9011764705882298 W
r0.9011764705882298 P
r0.9011764705882298 I
r0.9011764705882298 B
b1111111 8
1'
1(
#135000000
0'
0(
#135500000
r0.8988235294117592 B
r0.8988235294117592 I
r0.8988235294117592 P
r0.8988235294117592 W
b10000000 8
1'
1(
#136000000
0'
0(
#136500000
r0.8964705882352887 W
r0.8964705882352887 P
r0.8964705882352887 I
r0.8964705882352887 B
b10000001 8
1'
1(
#137000000
0'
0(
#137500000
r0.8941176470588181 B
r0.8941176470588181 I
r0.8941176470588181 P
r0.8941176470588181 W
b10000010 8
1'
1(
#138000000
0'
0(
#138500000
r0.8917647058823476 W
r0.8917647058823476 P
r0.8917647058823476 I
r0.8917647058823476 B
b10000011 8
1'
1(
#139000000
0'
0(
#139500000
r0.889411764705877 B
r0.889411764705877 I
r0.889411764705877 P
r0.889411764705877 W
b10000100 8
1'
1(
#140000000
0'
0(
#140500000
r0.8870588235294065 W
r0.8870588235294065 P
r0.8870588235294065 I
r0.8870588235294065 B
b10000101 8
1'
1(
#141000000
0'
0(
#141500000
r0.8847058823529359 B
r0.8847058823529359 I
r0.8847058823529359 P
r0.8847058823529359 W
b10000110 8
1'
1(
#142000000
0'
0(
#142500000
r0.8823529411764653 W
r0.8823529411764653 P
r0.8823529411764653 I
r0.8823529411764653 B
b10000111 8
1'
1(
#143000000
0'
0(
#143500000
r0.8799999999999948 B
r0.8799999999999948 I
r0.8799999999999948 P
r0.8799999999999948 W
b10001000 8
1'
1(
#144000000
0'
0(
#144500000
r0.8776470588235242 W
r0.8776470588235242 P
r0.8776470588235242 I
r0.8776470588235242 B
b10001001 8
1'
1(
#145000000
0'
0(
#145500000
r0.8752941176470537 B
r0.8752941176470537 I
r0.8752941176470537 P
r0.8752941176470537 W
b10001010 8
1'
1(
#146000000
0'
0(
#146500000
r0.8729411764705831 W
r0.8729411764705831 P
r0.8729411764705831 I
r0.8729411764705831 B
b10001011 8
1'
1(
#147000000
0'
0(
#147500000
r0.8705882352941126 B
r0.8705882352941126 I
r0.8705882352941126 P
r0.8705882352941126 W
b10001100 8
1'
1(
#148000000
0'
0(
#148500000
r0.868235294117642 W
r0.868235294117642 P
r0.868235294117642 I
r0.868235294117642 B
b10001101 8
1'
1(
#149000000
0'
0(
#149500000
r0.8658823529411714 B
r0.8658823529411714 I
r0.8658823529411714 P
r0.8658823529411714 W
b10001110 8
1'
1(
#150000000
0'
0(
#150500000
r0.8635294117647009 W
r0.8635294117647009 P
r0.8635294117647009 I
r0.8635294117647009 B
b10001111 8
1'
1(
#151000000
0'
0(
#151500000
r0.8611764705882303 B
r0.8611764705882303 I
r0.8611764705882303 P
r0.8611764705882303 W
b10010000 8
1'
1(
#152000000
0'
0(
#152500000
r0.8588235294117598 W
r0.8588235294117598 P
r0.8588235294117598 I
r0.8588235294117598 B
b10010001 8
1'
1(
#153000000
0'
0(
#153500000
r0.8564705882352892 B
r0.8564705882352892 I
r0.8564705882352892 P
r0.8564705882352892 W
b10010010 8
1'
1(
#154000000
0'
0(
#154500000
r0.8541176470588187 W
r0.8541176470588187 P
r0.8541176470588187 I
r0.8541176470588187 B
b10010011 8
1'
1(
#155000000
0'
0(
#155500000
r0.8517647058823481 B
r0.8517647058823481 I
r0.8517647058823481 P
r0.8517647058823481 W
b10010100 8
1'
1(
#156000000
0'
0(
#156500000
r0.8494117647058775 W
r0.8494117647058775 P
r0.8494117647058775 I
r0.8494117647058775 B
b10010101 8
1'
1(
#157000000
0'
0(
#157500000
r0.847058823529407 B
r0.847058823529407 I
r0.847058823529407 P
r0.847058823529407 W
b10010110 8
1'
1(
#158000000
0'
0(
#158500000
r0.8447058823529364 W
r0.8447058823529364 P
r0.8447058823529364 I
r0.8447058823529364 B
b10010111 8
1'
1(
#159000000
0'
0(
#159500000
r0.8423529411764659 B
r0.8423529411764659 I
r0.8423529411764659 P
r0.8423529411764659 W
b10011000 8
1'
1(
#160000000
0'
0(
#160500000
r0.8399999999999953 W
r0.8399999999999953 P
r0.8399999999999953 I
r0.8399999999999953 B
b10011001 8
1'
1(
#161000000
0'
0(
#161500000
r0.8376470588235247 B
r0.8376470588235247 I
r0.8376470588235247 P
r0.8376470588235247 W
b10011010 8
1'
1(
#162000000
0'
0(
#162500000
r0.8352941176470542 W
r0.8352941176470542 P
r0.8352941176470542 I
r0.8352941176470542 B
b10011011 8
1'
1(
#163000000
0'
0(
#163500000
r0.8329411764705836 B
r0.8329411764705836 I
r0.8329411764705836 P
r0.8329411764705836 W
b10011100 8
1'
1(
#164000000
0'
0(
#164500000
r0.8305882352941131 W
r0.8305882352941131 P
r0.8305882352941131 I
r0.8305882352941131 B
b10011101 8
1'
1(
#165000000
0'
0(
#165500000
r0.8282352941176425 B
r0.8282352941176425 I
r0.8282352941176425 P
r0.8282352941176425 W
b10011110 8
1'
1(
#166000000
0'
0(
#166500000
r0.825882352941172 W
r0.825882352941172 P
r0.825882352941172 I
r0.825882352941172 B
b10011111 8
1'
1(
#167000000
0'
0(
#167500000
r0.8235294117647014 B
r0.8235294117647014 I
r0.8235294117647014 P
r0.8235294117647014 W
b10100000 8
1'
1(
#168000000
0'
0(
#168500000
r0.8211764705882308 W
r0.8211764705882308 P
r0.8211764705882308 I
r0.8211764705882308 B
b10100001 8
1'
1(
#169000000
0'
0(
#169500000
r0.8188235294117603 B
r0.8188235294117603 I
r0.8188235294117603 P
r0.8188235294117603 W
b10100010 8
1'
1(
#170000000
0'
0(
#170500000
r0.8164705882352897 W
r0.8164705882352897 P
r0.8164705882352897 I
r0.8164705882352897 B
b10100011 8
1'
1(
#171000000
0'
0(
#171500000
r0.8141176470588192 B
r0.8141176470588192 I
r0.8141176470588192 P
r0.8141176470588192 W
b10100100 8
1'
1(
#172000000
0'
0(
#172500000
r0.8117647058823486 W
r0.8117647058823486 P
r0.8117647058823486 I
r0.8117647058823486 B
b10100101 8
1'
1(
#173000000
0'
0(
#173500000
r0.8094117647058781 B
r0.8094117647058781 I
r0.8094117647058781 P
r0.8094117647058781 W
b10100110 8
1'
1(
#174000000
0'
0(
#174500000
r0.8070588235294075 W
r0.8070588235294075 P
r0.8070588235294075 I
r0.8070588235294075 B
b10100111 8
1'
1(
#175000000
0'
0(
#175500000
r0.8047058823529369 B
r0.8047058823529369 I
r0.8047058823529369 P
r0.8047058823529369 W
b10101000 8
1'
1(
#176000000
0'
0(
#176500000
r0.8023529411764664 W
r0.8023529411764664 P
r0.8023529411764664 I
r0.8023529411764664 B
b10101001 8
1'
1(
#177000000
0'
0(
#177500000
r0.7999999999999958 B
r0.7999999999999958 I
r0.7999999999999958 P
r0.7999999999999958 W
b10101010 8
1'
1(
#178000000
0'
0(
#178500000
r0.7976470588235253 W
r0.7976470588235253 P
r0.7976470588235253 I
r0.7976470588235253 B
b10101011 8
1'
1(
#179000000
0'
0(
